<?xml version="1.0" encoding="utf-8"?>
<!-- Generator: Adobe Illustrator 19.0.0, SVG Export Plug-In . SVG Version: 6.00 Build 0)  -->
<svg version="1.1" id="Layer_1" xmlns="http://www.w3.org/2000/svg" xmlns:xlink="http://www.w3.org/1999/xlink" x="0px" y="0px"
	 viewBox="-306.5 213.5 135 135" style="enable-background:new -306.5 213.5 135 135;" xml:space="preserve">
<style type="text/css">
	.st0{fill:#C8DAEA;}
	.st1{fill:#A9C9DD;}
	.st2{fill:url(#SVGID_1_);}
</style>
<path class="st0" d="M-253.7,324.7c-3.5,0-2.9-1.3-4.1-4.7l-10.4-34.2l79.9-47.4"/>
<path class="st1" d="M-253.7,324.7c2.7,0,3.9-1.2,5.4-2.7l13.1-12.8l-16.7-12.2"/>
<linearGradient id="SVGID_1_" gradientUnits="userSpaceOnUse" x1="-1427.1028" y1="1.8377" x2="-1426.929" y2="2.1697" gradientTransform="matrix(130.4927 0 0 109.4496 186000.4688 76.1801)">
	<stop  offset="0" style="stop-color:#EFF7FC"/>
	<stop  offset="1" style="stop-color:#FFFFFF"/>
</linearGradient>
<path class="st2" d="M-251.8,296.9l43.9,32.5c5,2.8,8.6,1.3,9.9-4.7l17.9-84.3c1.8-7.3-2.8-10.7-7.6-8.5l-105,40.5
	c-7.2,2.9-7.1,6.9-1.3,8.7l26.9,8.4l62.4-39.4c2.9-1.8,5.6-0.8,3.4,1.1"/>
</svg>
